TidyTuesday Data: Plastic Pollution
…
tuesdata <- tidytuesdayR::tt_load(2021, week = 5)

## 
##  Downloading file 1 of 1: `plastics.csv`

plastics <- tuesdata$plastics

#Wrangle the data
# skim(plastics)

plastics %>% 
  distinct(parent_company)

## # A tibble: 10,823 x 1
##    parent_company        
##    <chr>                 
##  1 Grand Total           
##  2 Unbranded             
##  3 The Coca-Cola Company 
##  4 Secco                 
##  5 Doble Cola            
##  6 Pritty                
##  7 PepsiCo               
##  8 Casoni                
##  9 Villa Del Sur - Levite
## 10 Manaos                
## #  with 10,813 more rows
…
# Companies Worldwide - must be in more than 1 country
plastics_company <- plastics_clean %>%
  group_by(year, parent_company, plastic_type) %>%
  summarise(total = sum(count),
            n = n()) %>%
  filter(n > 1) %>%
  ungroup()

# Which company has the highest plastic count?
plastics_company %>%
  filter(parent_company != 'Unbranded') %>%
  filter(plastic_type == 'grand_total') %>%
  arrange(-total) 

## # A tibble: 515 x 5
##     year parent_company               plastic_type total     n
##    <dbl> <chr>                        <chr>        <dbl> <int>
##  1  2020 The Coca-Cola Company        grand_total  13835    50
##  2  2019 The Coca-Cola Company        grand_total  11695    29
##  3  2020 Nestl                       grand_total   8642    36
##  4  2020 Universal Robina Corporation grand_total   6408     9
##  5  2019 Assorted                     grand_total   6101     3
##  6  2020 Colgate-Palmolive            grand_total   5911    24
##  7  2020 Unilever                     grand_total   5558    36
##  8  2019 Pure Water, Inc.             grand_total   5310     3
##  9  2020 Pepsico                      grand_total   5155    41
## 10  2019 Nestl                       grand_total   4851    24
## #  with 505 more rows

# Which company was found in the most countries?
plastics_company %>%
  filter(parent_company != 'Unbranded') %>%
  filter(plastic_type == 'grand_total') %>%
  arrange(-n)

## # A tibble: 515 x 5
##     year parent_company              plastic_type total     n
##    <dbl> <chr>                       <chr>        <dbl> <int>
##  1  2020 The Coca-Cola Company       grand_total  13835    50
##  2  2020 Pepsico                     grand_total   5155    41
##  3  2020 Nestl                      grand_total   8642    36
##  4  2020 Unilever                    grand_total   5558    36
##  5  2020 Mondelez International      grand_total   1171    34
##  6  2020 Mars, Incorporated          grand_total    678    31
##  7  2019 The Coca-Cola Company       grand_total  11695    29
##  8  2020 Procter & Gamble            grand_total   3535    29
##  9  2020 Philip Morris International grand_total   2593    28
## 10  2019 Nestl                      grand_total   4851    24
## #  with 505 more rows
…
# PET - Polyester plastic count (Polyester fibers, soft drink bottles, food containers, plastic bottles)

# Which company has the highest PET count?
plastics_company %>%
  filter(parent_company != 'Unbranded') %>%
  filter(plastic_type == 'pet') %>%
  arrange(-total) 

## # A tibble: 122 x 5
##     year parent_company                  plastic_type total     n
##    <dbl> <chr>                           <chr>        <dbl> <int>
##  1  2020 The Coca-Cola Company           pet          11498    46
##  2  2019 The Coca-Cola Company           pet           9247    26
##  3  2019 Pure Water, Inc.                pet           4989     2
##  4  2020 Pepsico                         pet           3373    36
##  5  2019 PepsiCo                         pet           2046    16
##  6  2019 Bakhresa Group                  pet           1311     3
##  7  2019 Nestl                          pet           1111    15
##  8  2020 Voltic Ghana Limited            pet           1027     2
##  9  2020 Danone                          pet            912    12
## 10  2019 VijuIndustries Nigeria Limited pet            844     2
## #  with 112 more rows
…
